{
    "response": {
        "status": "ok",
        "userTier": "developer",
        "total": 42451,
        "startIndex": 1,
        "pageSize": 10,
        "currentPage": 1,
        "pages": 4246,
        "orderBy": "relevance",
        "results": [
            {
                "id": "business/2021/jul/23/electric-cars-uk-government-urged-to-prevent-charging-deserts",
                "type": "article",
                "sectionId": "business",
                "sectionName": "Business",
                "webPublicationDate": "2021-07-23T07:43:54Z",
                "webTitle": "Electric cars: UK government urged to prevent ‘charging deserts’",
                "webUrl": "https://www.theguardian.com/business/2021/jul/23/electric-cars-uk-government-urged-to-prevent-charging-deserts",
                "apiUrl": "https://content.guardianapis.com/business/2021/jul/23/electric-cars-uk-government-urged-to-prevent-charging-deserts",
                "isHosted": false,
                "pillarId": "pillar/news",
                "pillarName": "News"
            },
            {
                "id": "environment/2021/jul/17/mobile-farmers-market-washington-dc-food-deserts",
                "type": "article",
                "sectionId": "environment",
                "sectionName": "Environment",
                "webPublicationDate": "2021-07-17T11:20:00Z",
                "webTitle": "The farmers’ market on wheels tackling one of America’s worst food deserts ",
                "webUrl": "https://www.theguardian.com/environment/2021/jul/17/mobile-farmers-market-washington-dc-food-deserts",
                "apiUrl": "https://content.guardianapis.com/environment/2021/jul/17/mobile-farmers-market-washington-dc-food-deserts",
                "isHosted": false,
                "pillarId": "pillar/news",
                "pillarName": "News"
            },
            {
                "id": "uk-news/2021/jul/11/nhs-trust-apologises-over-trauma-caused-by-charging-overseas-patients",
                "type": "article",
                "sectionId": "uk-news",
                "sectionName": "UK news",
                "webPublicationDate": "2021-07-11T08:45:40Z",
                "webTitle": "NHS trust apologises over trauma caused by charging ‘overseas’ patients",
                "webUrl": "https://www.theguardian.com/uk-news/2021/jul/11/nhs-trust-apologises-over-trauma-caused-by-charging-overseas-patients",
                "apiUrl": "https://content.guardianapis.com/uk-news/2021/jul/11/nhs-trust-apologises-over-trauma-caused-by-charging-overseas-patients",
                "isHosted": false,
                "pillarId": "pillar/news",
                "pillarName": "News"
            },
            {
                "id": "environment/2021/may/24/britain-electric-car-charging-network-ofgem-points",
                "type": "article",
                "sectionId": "environment",
                "sectionName": "Environment",
                "webPublicationDate": "2021-05-24T14:51:36Z",
                "webTitle": "Britain’s electric car charging network boosted by £300m funding",
                "webUrl": "https://www.theguardian.com/environment/2021/may/24/britain-electric-car-charging-network-ofgem-points",
                "apiUrl": "https://content.guardianapis.com/environment/2021/may/24/britain-electric-car-charging-network-ofgem-points",
                "isHosted": false,
                "pillarId": "pillar/news",
                "pillarName": "News"
            },
            {
                "id": "world/2021/jul/15/us-aims-to-woo-central-asian-leaders-for-secure-base-near-afghanistan",
                "type": "article",
                "sectionId": "world",
                "sectionName": "World news",
                "webPublicationDate": "2021-07-15T16:48:10Z",
                "webTitle": "Afghanistan’s neighbours step up efforts to prevent civil war ",
                "webUrl": "https://www.theguardian.com/world/2021/jul/15/us-aims-to-woo-central-asian-leaders-for-secure-base-near-afghanistan",
                "apiUrl": "https://content.guardianapis.com/world/2021/jul/15/us-aims-to-woo-central-asian-leaders-for-secure-base-near-afghanistan",
                "isHosted": false,
                "pillarId": "pillar/news",
                "pillarName": "News"
            },
            {
                "id": "uk-news/2021/jul/07/staggeringly-high-number-of-people-with-autism-on-uk-prevent-scheme",
                "type": "article",
                "sectionId": "uk-news",
                "sectionName": "UK news",
                "webPublicationDate": "2021-07-07T05:00:23Z",
                "webTitle": "‘Staggeringly high’ number of autistic people on UK Prevent scheme",
                "webUrl": "https://www.theguardian.com/uk-news/2021/jul/07/staggeringly-high-number-of-people-with-autism-on-uk-prevent-scheme",
                "apiUrl": "https://content.guardianapis.com/uk-news/2021/jul/07/staggeringly-high-number-of-people-with-autism-on-uk-prevent-scheme",
                "isHosted": false,
                "pillarId": "pillar/news",
                "pillarName": "News"
            },
            {
                "id": "technology/2021/mar/24/oneplus-9-pro-review-super-slick-rapid-charging-android-phone",
                "type": "article",
                "sectionId": "technology",
                "sectionName": "Technology",
                "webPublicationDate": "2021-03-24T07:00:33Z",
                "webTitle": "OnePlus 9 Pro review: super slick, rapid charging Android phone",
                "webUrl": "https://www.theguardian.com/technology/2021/mar/24/oneplus-9-pro-review-super-slick-rapid-charging-android-phone",
                "apiUrl": "https://content.guardianapis.com/technology/2021/mar/24/oneplus-9-pro-review-super-slick-rapid-charging-android-phone",
                "isHosted": false,
                "pillarId": "pillar/news",
                "pillarName": "News"
            },
            {
                "id": "commentisfree/2021/may/26/renewed-diplomacy-urgently-needed-prevent-another-gaza-war",
                "type": "article",
                "sectionId": "commentisfree",
                "sectionName": "Opinion",
                "webPublicationDate": "2021-05-26T13:00:04Z",
                "webTitle": "Renewed diplomacy is urgently needed to prevent another Gaza war | Jane Kinninmont",
                "webUrl": "https://www.theguardian.com/commentisfree/2021/may/26/renewed-diplomacy-urgently-needed-prevent-another-gaza-war",
                "apiUrl": "https://content.guardianapis.com/commentisfree/2021/may/26/renewed-diplomacy-urgently-needed-prevent-another-gaza-war",
                "isHosted": false,
                "pillarId": "pillar/opinion",
                "pillarName": "Opinion"
            },
            {
                "id": "uk-news/2021/jan/26/cps-accused-of-systemic-illegality-in-charging-cases",
                "type": "article",
                "sectionId": "uk-news",
                "sectionName": "UK news",
                "webPublicationDate": "2021-01-26T20:36:18Z",
                "webTitle": "CPS accused of 'systemic illegality' in charging rape cases",
                "webUrl": "https://www.theguardian.com/uk-news/2021/jan/26/cps-accused-of-systemic-illegality-in-charging-cases",
                "apiUrl": "https://content.guardianapis.com/uk-news/2021/jan/26/cps-accused-of-systemic-illegality-in-charging-cases",
                "isHosted": false,
                "pillarId": "pillar/news",
                "pillarName": "News"
            },
            {
                "id": "money/2021/jan/26/ovo-to-launch-half-price-electric-vehicle-charging-tariff",
                "type": "article",
                "sectionId": "money",
                "sectionName": "Money",
                "webPublicationDate": "2021-01-26T19:57:54Z",
                "webTitle": "Ovo to launch 'half-price' electric vehicle charging tariff",
                "webUrl": "https://www.theguardian.com/money/2021/jan/26/ovo-to-launch-half-price-electric-vehicle-charging-tariff",
                "apiUrl": "https://content.guardianapis.com/money/2021/jan/26/ovo-to-launch-half-price-electric-vehicle-charging-tariff",
                "isHosted": false,
                "pillarId": "pillar/lifestyle",
                "pillarName": "Lifestyle"
            }
        ]
    }
}